<svg xmlns="http://www.w3.org/2000/svg" width="14.139" height="14.139" viewBox="0 0 14.139 14.139">
    <defs>
        <style>
            .cls-3{fill:#090909}
        </style>
    </defs>
    <g id="ICN_Check-in_Texto" transform="translate(-83.474 -164.474)">
        <path id="Trazado_30746" fill="#fb0" d="M458.573 320.048l-1.48-1.142-1.015.508 1.142 1.65 1.353 1.036 2.136-1.692 2.136-2.453-.952-.719z" transform="translate(-368.872 -147.813)"/>
        <g id="Elipse_23" fill="none" stroke="#ff9924" transform="translate(83.781 164.781)">
            <circle cx="6.763" cy="6.763" r="6.763" stroke="none"/>
            <circle cx="6.763" cy="6.763" r="6.263"/>
        </g>
        <g id="check" transform="translate(83.474 164.474)">
            <g id="Grupo_9715">
                <g id="Grupo_9714">
                    <path id="Trazado_30742" d="M13.569 4.354A7.347 7.347 0 0 0 9.785.57a6.758 6.758 0 0 0-5.431 0A7.347 7.347 0 0 0 .57 4.354a6.758 6.758 0 0 0 0 5.431 7.347 7.347 0 0 0 3.784 3.784 6.758 6.758 0 0 0 5.431 0 7.347 7.347 0 0 0 3.784-3.784 6.758 6.758 0 0 0 0-5.431zm-6.5 9.233A6.6 6.6 0 0 1 .552 7.069 6.6 6.6 0 0 1 7.069.552a6.6 6.6 0 0 1 6.517 6.517 6.6 6.6 0 0 1-6.517 6.517z" class="cls-3"/>
                </g>
            </g>
            <g id="Grupo_9717" transform="translate(1.187 1.187)">
                <g id="Grupo_9716">
                    <path id="Trazado_30743" d="M54.294 46.612a6.041 6.041 0 0 0-3.142-3.142 5.71 5.71 0 0 0-2.27-.47 5.837 5.837 0 0 0-3.2 1.049.276.276 0 1 0 .306.46 5.289 5.289 0 0 1 2.9-.957 5.33 5.33 0 1 1-5.33 5.33 5.291 5.291 0 0 1 .956-2.9.276.276 0 1 0-.46-.306A5.839 5.839 0 0 0 43 48.882a5.71 5.71 0 0 0 .47 2.27 6.042 6.042 0 0 0 3.142 3.142 5.714 5.714 0 0 0 4.54 0 6.041 6.041 0 0 0 3.142-3.142 5.714 5.714 0 0 0 0-4.54z" class="cls-3" transform="translate(-43 -43)"/>
                </g>
            </g>
            <g id="Grupo_9719" transform="translate(2.9 2.9)">
                <g id="Grupo_9718">
                    <path id="Trazado_30744" d="M105.276 105a.276.276 0 1 0 .276.276.276.276 0 0 0-.276-.276z" class="cls-3" transform="translate(-105 -105)"/>
                </g>
            </g>
            <g id="Grupo_9721" transform="translate(3.479 4.584)">
                <g id="Grupo_9720">
                    <path id="Trazado_30745" d="M132.856 166.324a1.1 1.1 0 0 0-1.562 0l-2.533 2.533-.876-.876a1.1 1.1 0 1 0-1.562 1.562l1.657 1.657a1.1 1.1 0 0 0 1.562 0l3.314-3.314a1.1 1.1 0 0 0 0-1.562zm-.391 1.171l-3.314 3.314a.552.552 0 0 1-.781 0l-1.657-1.657a.552.552 0 1 1 .781-.781l1.266 1.266 2.923-2.923a.552.552 0 1 1 .781.781z" class="cls-3" transform="translate(-126 -166)"/>
                </g>
            </g>
        </g>
    </g>
</svg>
