<svg xmlns="http://www.w3.org/2000/svg" width="41.714" height="46.231" viewBox="0 0 41.714 46.231">
    <g>
        <path fill="rgba(22,22,22,0.3)" d="M2340.008 247.117l.416-7.792 1.974-3.74 4.571-.519 6.234-3.532 4.675-.623 5.922 2.078 4.779 2.078 3.117.519 2.493-1.247-.935 3.325-2.6 2.39-.727 1.662.727 6.338-6.857-.935-10.6-1.87-4.883-1.143h-2.078z" transform="translate(-2334.438 -230.116)"/>
        <path fill="#ff9924" d="M2356.528 269.892a14.493 14.493 0 0 0-6.026 1.454c-2.7 1.455-7.48 4.779-8.831 6.649a16.851 16.851 0 0 0-1.662 2.6h2.493l1.247 1.039 1.767 2.909h4.26l2.078 2.909 7.169-13.922v-2.182z" transform="translate(-2334.438 -241.982)"/>
        <g>
            <path d="M65.959 18.557a3.061 3.061 0 0 0-2.57-1.341h-1.2l-.478-4.392c-.154-1.437-.058-1.587.421-2.06.185-.182.393-.363.614-.555a7.377 7.377 0 0 0 2.946-5.772.9.9 0 0 0-1.125-.93c-.482.123-.925.242-1.315.347-2.852.769-3.53.951-6.222-.71C52.621.429 48.673-.514 44.955.263a17.907 17.907 0 0 0-7.3 3.825l-.432.329a5.482 5.482 0 0 0-4.33.555A6.428 6.428 0 0 0 29.93 9.55a41.594 41.594 0 0 0-.46 7.665h-1.114a3.061 3.061 0 0 0-2.57 1.341 4.72 4.72 0 0 0-.77 2.689c0 2.335 1.451 4.817 4.139 4.817h.59a17.879 17.879 0 0 0 3.666 7.253 20.348 20.348 0 0 0-3.978 4.994.9.9 0 0 0 .791 1.339l2.447-.008a1.216 1.216 0 0 1 .8.428l1.346 2.047a2.977 2.977 0 0 0 2.3 1.242h.009l2.449-.008a1.213 1.213 0 0 1 .8.427l1.344 2.048a.9.9 0 0 0 .755.408h.035a.9.9 0 0 0 .756-.467c.589-1.071 1.194-2.143 1.779-3.179q.662-1.174 1.28-2.279a12.264 12.264 0 0 0 3.728-.826 17.494 17.494 0 0 0 3.409-1.732.9.9 0 0 0-.983-1.515 15.692 15.692 0 0 1-3.055 1.554 12.354 12.354 0 0 1-2.038.581c2.06-3.85 3.357-6.928 2.779-8.964a2.764 2.764 0 0 0-1.368-1.724c-1.9-1.045-5.542-.449-9.507 1.557a25.943 25.943 0 0 0-4.507 2.9 14.458 14.458 0 0 1-3.5-8.5V18.5a12.571 12.571 0 0 1 6.064-3.4 4.414 4.414 0 0 1 2.984.169c.29.086.62.184.988.28a100.537 100.537 0 0 0 17.3 3.152l1.863.217v4.708a13.433 13.433 0 0 1-2.532 7.183.9.9 0 1 0 1.5 1.006A17.142 17.142 0 0 0 62 26.063h.592c2.688 0 4.139-2.482 4.139-4.817a4.721 4.721 0 0 0-.77-2.689zM40.1 30.846c3.662-1.852 6.707-2.2 7.821-1.586a.98.98 0 0 1 .5.636c.57 2.009-2.239 6.987-4.956 11.8-.349.619-.706 1.25-1.062 1.887l-.524-.8a2.988 2.988 0 0 0-2.309-1.242l-2.453.008a1.2 1.2 0 0 1-.79-.428l-1.346-2.047a2.99 2.99 0 0 0-2.311-1.242h-.823a22.364 22.364 0 0 1 8.253-6.986zm-10.945-6.589c-1.712 0-2.333-1.8-2.333-3.011a2.957 2.957 0 0 1 .444-1.653 1.252 1.252 0 0 1 1.09-.571h1.114v4.608q0 .311.019.628zm29.662-7.347a99.13 99.13 0 0 1-17.049-3.1c-.339-.089-.64-.178-.93-.264a7.683 7.683 0 0 0-2.284-.433 6.252 6.252 0 0 0-1.7.256 14.124 14.124 0 0 0-5.576 2.731 35.406 35.406 0 0 1 .438-6.283 4.607 4.607 0 0 1 2.1-3.292 3.7 3.7 0 0 1 3.266-.257.9.9 0 0 0 .846-.122c.266-.2.536-.4.823-.622 3.521-2.692 8.343-6.378 17.324-.84 3.355 2.07 4.7 1.709 7.636.917a5.5 5.5 0 0 1-2.159 3.248c-.231.2-.47.41-.695.63-1.083 1.069-1.121 1.939-.949 3.54l.443 4.071-1.538-.179zm3.774 7.347h-.333c.013-.211.02-.421.02-.628v-4.607h1.111a1.252 1.252 0 0 1 1.09.571 2.957 2.957 0 0 1 .444 1.653c0 1.21-.621 3.011-2.333 3.011z" transform="translate(-25.016)"/>
            <path d="M308.88 236.023a.9.9 0 0 0-.38-1.219l-2.253-1.181 2.253-1.181a.9.9 0 0 0-.839-1.6l-3.778 1.981a.9.9 0 0 0 0 1.6l3.778 1.981a.9.9 0 0 0 1.219-.38z" transform="translate(-278.263 -209.904)"/>
            <path d="M146.867 236.022a.9.9 0 0 0 1.219.38l3.778-1.981a.9.9 0 0 0 0-1.6l-3.778-1.981a.9.9 0 1 0-.839 1.6l2.253 1.181-2.253 1.181a.9.9 0 0 0-.38 1.22z" transform="translate(-135.77 -209.903)"/>
            <path d="M179.415 349.846a.9.9 0 0 0 .477-.137 17.628 17.628 0 0 1 5.044-2.192.9.9 0 0 0-.428-1.754 19.45 19.45 0 0 0-5.572 2.415.9.9 0 0 0 .479 1.669z" transform="translate(-164.651 -314.518)"/>
            <path d="M359.285 371.967a.9.9 0 1 0 1.279 0 .9.9 0 0 0-1.281.002z" transform="translate(-328.86 -338.139)"/>
        </g>
    </g>
</svg>
